<?xml version="1.0" encoding="utf-8"?>
<!-- (c) Yogapage 2016 / Designed by Gax -->
<!DOCTYPE svg PUBLIC "-//W3C//DTD SVG 1.1//EN" "http://www.w3.org/Graphics/SVG/1.1/DTD/svg11.dtd">
<svg version="1.1" id="Layer_1" xmlns="http://www.w3.org/2000/svg" xmlns:xlink="http://www.w3.org/1999/xlink" x="0px" y="0px"
	 width="581px" height="476.465px" viewBox="0 0 581 476.465" enable-background="new 0 0 581 476.465" xml:space="preserve">
<path fill-rule="evenodd" clip-rule="evenodd" d="M60,473.998c-14.472-0.641-28.939,0.688-43.412,0.285
	c-3.245-0.093-6.49-0.145-9.608-1.084c-4.628-1.394-7.323-5.688-6.946-10.616c1.826-24.002,4.553-47.905,7.327-71.812
	c1.406-12.1,0.753-24.426,1.667-36.598c0.843-11.219,2.259-22.396,4.133-33.521c2.583-15.327,7.894-29.887,11.967-44.791
	c5.79-21.181,10.277-42.604,13.113-64.367c1.734-13.316,4.864-26.174,10.897-38.272c1.669-3.346,4.136-7.422,3.417-10.504
	c-0.664-2.844-5.093-4.83-7.896-7.154c-7.937-6.587-12.616-15.312-16.356-24.686c-7.021-17.586-10.558-35.906-9.651-54.753
	c0.924-19.197,5.136-37.818,15.271-54.48c5.94-9.768,14.071-17.485,25.507-20.521c14.255-3.787,25.195,2.409,34.426,12.54
	c11.286,12.381,16.291,27.592,19.063,43.733c0.117,0.687,0.473,1.368,0.437,2.037c-0.559,10.398,4.885,15.965,14.233,19.498
	c5.797,2.192,4.827,8.376-1.683,12.041c-5.527,3.111-9.696,7.047-10.401,13.73c-0.543,5.167-2.104,10.105-3.341,15.126
	c-2.915,11.833-7.543,22.865-15.456,32.207c-3.368,3.975-6.857,8.114-12.069,10.009c-2.09,0.761-2.457,1.819-1.772,4.173
	c3.441,11.82,8.876,22.592,15.105,33.208c8.606,14.67,15.613,30.18,21.112,46.379c4.384,12.91,10.131,25.36,14.412,38.303
	c5.434,16.422,9.5,33.273,13.596,50.084c3.195,13.111,5.477,26.474,9.26,39.402c3.109,10.623,7.364,20.961,12.106,31.022
	c2.951,6.257,8.815,7.213,14.814,7.843c9.723,1.016,17.578-1.728,26.622-6.845c3.48-1.97,7.188-3.792,10.776-5.726
	c14.606-7.87,28.88-16.309,42.914-25.163c12.266-7.161,21.266-11.827,33.1-17.661c18.639-9.887,38.502-19.17,57.178-28.988
	c6.463-3.396,12.85-6.976,19.884-9.15c7.075-2.188,13.19-0.206,18.17,4.846c10.942,11.104,21.136,22.836,30.496,35.365
	c6.954,9.313,14.932,17.901,22.829,26.464c13.242,14.346,24.123,30.909,38.944,43.669c10.761,9.264,22.09,18.229,36.505,21.969
	c10.871,2.822,21.322,7.357,32.52,8.837c6.79,0.898,13.717,1.077,20.579,1.029c4.69-0.034,7.071,1.249,7.209,5.269
	c0.117,3.462-3.851,7.904-7.271,7.354c-9.15-1.47-17.922,0.626-26.779,2.15c-4.928,0.85-9.873,0.479-14.684-0.51
	c-5.107-1.049-10.2-1.906-15.39-2.45c-5.063-0.529-9.78,0.142-14.426,2.116c-9.763,4.154-18.889-1.035-18.827-11.59
	c0.052-9.171-3.816-15.024-10.544-20.74c-10.706-9.095-22.31-16.972-33.108-25.875c-11.676-9.632-24.457-18.015-34.611-29.401
	c-6.185-6.938-10.799-15.063-16.167-22.619c-2.199-3.098-4.247-6.305-6.438-9.409c-2.826-3.991-7.12-4.676-10.819-1.613
	c-9.87,8.166-19.52,16.563-28.807,25.41c-5.482,5.217-12.062,9.226-18.194,13.676c-7.636,5.536-14.584,11.965-22.513,17.068
	c-17.368,11.177-32.563,25.386-50.584,35.699c-9.277,5.31-18.966,10.393-28.234,15.675c-4.616,2.631-9.057,5.052-13.686,7.705
	c-9.401,5.399-19.645,7.168-30.379,7.062c-9.012-0.093-18.021,0.055-26.864-2.068c-18.6-4.467-29.445-17.199-34.8-34.57
	c-3.968-12.874-6.122-26.295-9.302-39.42c-4.9-20.231-10.344-40.245-17.901-59.761c-7.447-19.236-16.648-37.537-26.635-55.432
	c-3.407-6.104-2.56-8.833-0.358-15.991c4.814-13.028,8.701-26.817,10.608-40.698c0.26-1.891,0.637-4.119-1.731-4.493
	c-2.447-0.387-2.627,1.903-2.837,3.756c-1.063,9.424-4.031,18.384-6.871,27.353c-4.107,12.978-7.732,26.116-12.593,38.849
	c-3.056,8.001-5.991,16.067-9.507,23.865c-1.774,3.94-2.884,7.904-3.343,12.093c-2.125,19.453-4.624,38.896-8.717,57.991
	c-3.596,16.783-4.57,34.062-9.907,50.497c-0.938,2.895-1.243,6.07-1.342,9.133c-0.107,3.249,2.574,4.467,5.164,5.234
	c4.04,1.194,8.478,1.473,12.192,3.279c14.29,6.944,29.445,10.172,45.101,11.662c0.813,0.076,1.646,0.403,2.377,0.792
	c1.533,0.812,3.147,1.917,2.683,3.844c-0.417,1.728-2.271,1.972-3.842,1.982C74.073,474.025,67.038,473.998,60,473.998z
	 M54.438,90.595c-0.434,6.492,0.807,15.138,1.753,23.8c1.323,12.134,2.884,24.233,6.845,35.859c0.924,2.711,2.698,4.185,5.881,4.513
	c8.588,0.884,14.305-3.832,18.807-9.896c9.186-12.366,14.264-26.561,16.597-41.732c0.933-6.063,2.333-11.882,6.862-16.374
	c1.209-1.201,1.257-2.12-0.074-3.021c-6.418-4.352-7.732-11.136-8.369-18.067c-1.242-13.532-5.363-26.067-12.426-37.63
	c-4.689-7.674-10.658-13.722-20.049-15.442c-3.266-0.597-5.506,0.012-6.578,3.322c-0.948,2.923-2.13,5.802-2.751,8.794
	C56.582,45.695,54.346,66.895,54.438,90.595z"/>
<path fill-rule="evenodd" clip-rule="evenodd" fill="#F26522" d="M54.438,90.595c-0.091-23.7,2.144-44.9,6.497-65.873
	c0.621-2.992,1.803-5.871,2.751-8.794c1.072-3.311,3.312-3.919,6.578-3.322c9.391,1.721,15.36,7.769,20.049,15.442
	c7.063,11.563,11.184,24.098,12.426,37.63c0.637,6.931,1.951,13.715,8.369,18.067c1.332,0.901,1.284,1.82,0.074,3.021
	c-4.529,4.491-5.93,10.31-6.862,16.374c-2.333,15.171-7.411,29.366-16.597,41.732c-4.501,6.063-10.219,10.78-18.807,9.896
	c-3.183-0.329-4.957-1.802-5.881-4.513c-3.961-11.626-5.521-23.726-6.845-35.859C55.245,105.733,54.004,97.086,54.438,90.595z"/>
<text transform="matrix(0.6598 0.7479 -0.7499 0.6615 425.9917 377.4556)" fill="#414042" font-family="'Nyala-Regular'" font-size="4.1096">(c) 2016 Yogapage</text>
</svg>
