<?xml version="1.0" encoding="utf-8"?>
<!-- (c) Yogapage 2015 / Designed by Gax -->
<!DOCTYPE svg PUBLIC "-//W3C//DTD SVG 1.1//EN" "http://www.w3.org/Graphics/SVG/1.1/DTD/svg11.dtd">
<svg version="1.1" id="Layer_1" xmlns="http://www.w3.org/2000/svg" xmlns:xlink="http://www.w3.org/1999/xlink" x="0px" y="0px"
	 width="365.734px" height="529.999px" viewBox="0 0 365.734 529.999" enable-background="new 0 0 365.734 529.999"
	 xml:space="preserve">
<path fill-rule="evenodd" clip-rule="evenodd" d="M151.175,402.479c6.794-5.275,9.979-12.238,14.448-18.257
	c2.371-3.197,6.13-4.496,9.734-5.525c9.145-2.605,16.128-7.995,22.649-14.829c15.569-16.317,32.207-31.57,48.802-46.844
	c4.827-4.442,5.016-5.635,1.755-11.512c-6.215-11.199-15.405-16.787-28.345-15.178c-2.274,0.281-3.214-0.972-4.35-2.161
	c-15.424-16.125-34.098-28.115-52.184-40.802c-11.09-7.778-15.068-6.363-20.112,6.29c-4.724,11.852-6.957,24.314-7.182,37.057
	c-0.37,21.119-1.559,42.213-1.272,63.354c0.239,17.502,1.718,34.909,3.624,52.262c0.677,6.166-0.883,10.796-4.533,15.2
	c-1.511,1.826-2.889,3.613-2.447,6.528c3.497-1.242,5.269-4.072,6.985-6.788c2.72-4.304,5.137-8.782,7.229-13.441
	c0.651-1.448,0.847-3.442,3.833-1.563c2.836,1.787,6.39-0.252,10.473-2.132c-2.497,5.133-4.467,9.369-6.604,13.523
	c-1.934,3.755-2.198,7.112,1.305,10.191c6.163,5.425,7.035,5.702,12.399,2.232c8.824-5.71,16.305-13.146,24.668-19.45
	c2.432-1.833,3.696-4.464,4.369-7.361c4.042-17.378,15.041-29.477,29.894-39.294c-0.31,3.339-2.292,5.535-3.402,8.073
	c-8.643,19.784-20.184,38.023-30.354,56.993c-7.762,14.477-16.196,28.565-24.536,42.715c-5.892,9.999-13.628,18.059-22.997,24.693
	c-3.334,2.356-7.4,2.733-11.211,3.378c-10.437,1.759-20.53,0.427-30.188-4.204c-6.269-3.001-9.947-8.023-11.8-14.398
	c-2.891-9.938-3.592-20.02-0.803-30.157c7.982-29.007,11.873-58.556,13.923-88.595c2.348-34.382-2.617-67.985-7.096-101.746
	c-0.31-2.326-0.922-4.574-2.043-6.649c-1.105-2.049-2.636-3.442-5.187-3.305c-2.394,0.126-3.618,1.63-4.488,3.597
	c-1.191,2.688-1.778,5.537-2.225,8.424c-2.695,17.432-3.797,35.023-5.426,52.565c-1.21,13.039-2.911,26.056-5.804,38.863
	c-1.102,4.877-1.229,9.803-1.301,14.765c-0.264,18.35,0.815,36.725-0.749,55.049c-1.029,12.039-2.12,24.07-4.944,35.885
	c-2.583,10.792-2.905,21.923-4.425,32.88c-1.066,7.674-3.236,10.266-11.033,10.052c-15.459-0.42-30.873,0.363-46.303,0.723
	c-1.755,0.039-3.791,0.139-3.916-2.339c-0.135-2.658,1.922-2.207,3.681-2.398c7.913-0.861,16.011-0.826,23.059-5.578
	c2.78-1.872,6.308-2.161,9.565-2.93c8.877-2.104,11.734-5.229,12.343-14.366c0.776-11.622,1.597-23.259,1.848-34.902
	c0.525-24.173,0.511-48.357,5.713-72.178c0.856-3.919,0.5-8.126,0.527-12.199c0.128-19.962,0.719-39.885,3.076-59.748
	c1.357-11.438-0.257-23.02,1.039-34.489c1.666-14.756,3.136-29.577,6.678-44.005c2.09-8.511,4.236-17.323,12.174-22.99
	c3.204-2.289,6.986-2.807,10.453-4.249c7.554-3.141,12.327-9.085,16.429-15.724c0.984-1.591,1.677-3.405-1.323-4.329
	c-15.796-4.864-24.639-16.828-31.109-31.05c-4.401-9.675-7.151-19.919-8.67-30.373c-1.037-7.131-4.309-12.15-10.495-15.365
	c-1.776-0.922-3.027-2.189-4.215-3.661c-3.169-3.932-2.694-6.608,1.7-9.186c1.374-0.805,2.758-1.719,4.264-2.152
	c7.24-2.087,9.474-7.133,10.291-14.288c1.873-16.435,6.329-32.193,16.326-45.78c6.576-8.938,14.447-16.315,25.866-18.636
	c11.675-2.374,21.416,1.821,29.924,9.323c14.113,12.446,19.348,29.41,23.338,46.963c3.656,16.081,3.606,32.113,1.084,48.421
	c-2.093,13.546-6.354,26.229-12.024,38.524c-3.714,8.059-9.353,14.736-16.675,19.811c-2.675,1.854-3.525,3.887-2.671,7.004
	c0.726,2.653,1.007,5.426,1.52,8.143c1.233,6.528,6.816,12.158,13.494,13.325c11.46,2.006,19.894,7.993,27.087,17.282
	c7.984,10.309,16.129,20.655,25.836,29.543c12.118,11.099,23.026,23.531,36.539,33.095c9.069,6.421,17.3,13.812,24.782,22.005
	c5.417,5.934,9.952,12.559,13.85,19.567c2.546,4.57,1.813,7.066-1.982,9.778c-17.523,12.523-34.852,25.284-51.515,38.967
	c-7.813,6.421-15.443,12.782-20.953,21.418c-3.488,5.467-6.104,11.245-7.688,17.499c-0.74,2.926-2.112,5.51-4.402,7.386
	c-7.32,5.994-14.766,11.835-22.14,17.766c-2.896,2.328-5.256,2.545-8.347-0.277c-3.016-2.755-2.479-4.952-0.993-8.013
	c4.142-8.521,8.856-16.716,13.769-24.803c0.767-1.267,1.857-2.702,0.392-3.876c-1.568-1.26-2.618,0.395-3.589,1.388
	c-2.952,3.015-5.757,6.183-8.814,9.091C157.294,401.656,155.338,403.344,151.175,402.479z M128.227,98.631
	c0.405-26.335-1.51-45.125-4.743-63.756c-1.155-6.649-1.919-13.526-5.318-19.658c-0.967-1.746-1.95-2.766-4.042-2.444
	c-7.286,1.12-13.708,3.789-18.339,9.858C85.556,36.038,80.001,51.194,78.411,67.937c-0.681,7.169-2.047,14.182-8.693,18.67
	c-1.416,0.956-1.224,1.93-0.005,3.129c4.588,4.522,6.063,10.399,7.007,16.517c2.103,13.616,6.267,26.537,13.658,38.245
	c3.944,6.25,8.24,12.318,15.744,14.802c7.902,2.617,12.005,0.791,14.223-6.882C126.111,132.453,127.706,111.905,128.227,98.631z"/>
<path fill-rule="evenodd" clip-rule="evenodd" d="M162.011,486.667c9.568-12.896,16.861-26.32,24.71-39.387
	c1.481-2.463,3.163-3.364,5.957-3.247c13.069,0.545,26.139,1.022,39.188,2.033c13.633,1.054,27.358,1.143,40.789,4.189
	c15.246,3.457,31.068,4.87,44.922,13.199c5.442,3.271,10.856,6.368,12.786,12.986c3.367,11.543-0.783,19.025-12.544,22.643
	c-10.191,3.132-20.702,4.752-31.274,5.179c-15.549,0.627-30.982,2.435-46.481,3.521c-15.783,1.107-31.592,2.071-47.406,2.556
	c-14.474,0.445-27.747,4.399-40.156,11.65c-4.275,2.495-8.707,4.699-13.375,6.318c-7.023,2.438-13.957,2.563-20.422-1.769
	c-3.381-2.265-6.76-4.546-10.019-6.98c-4.389-3.282-4.103-7.554,0.515-10.747c5.014-3.463,10.809-4.385,16.584-4.274
	c7.342,0.139,13.883-2.727,20.749-4.368c3.328-0.797,4.98-3.947,7.288-6.069c5.133-4.723,11.197-5.393,16.538-2.267
	c8.65,5.065,17.458,3.328,26.357,2.651c9.982-0.758,19.313-4.04,28.489-7.846c8.429-3.491,17.179-5.343,26.362-5.211
	c13.548,0.196,27.096,0.21,40.646,0.296c1.311,0.007,2.624,0.007,3.934-0.028c1.064-0.025,2.182-0.235,2.246-1.521
	c0.064-1.264-0.996-1.712-2.064-1.783c-2.036-0.132-4.076-0.136-6.111-0.214c-17.183-0.641-34.379-1.366-51.501,0.78
	c-9.198,1.153-17.37,5.702-26.019,8.671c-10.25,3.521-20.853,3.741-31.453,4.218c-1.384,0.064-2.95-0.381-4.181-1.05
	C172.526,488.325,167.749,486.806,162.011,486.667z"/>
<path fill-rule="evenodd" clip-rule="evenodd" d="M302.361,453.021c-7.066-1.449-13.719-2.897-20.411-4.136
	c-2.019-0.374-2.402-1.812-3.072-3.239c-4.428-9.472-7.442-19.528-12.447-28.79c-5.963-11.031-13.591-20.952-20.204-31.542
	c-5.269-8.429-8.166-17.609-10.95-26.943c-0.559-1.872,0.424-2.624,1.655-3.527c6.679-4.909,13.467-9.689,19.927-14.875
	c2.923-2.346,3.923-1.324,5.386,1.353c5.265,9.625,8.482,20.069,12.178,30.299c8.778,24.305,17.502,48.638,25.006,73.381
	C300.221,447.622,302.5,449.654,302.361,453.021z"/>
<path fill-rule="evenodd" clip-rule="evenodd" d="M152.359,395.925c4.542-10.401,9.3-19.225,14.664-27.693
	c10.433-16.463,20.881-32.926,31.711-49.126c4.674-6.991,9.778-13.79,15.684-19.834c8.76-8.966,18.424-6.314,26.483,1.342
	c0.313,0.299,0.548,0.68,0.818,1.021c6.845,8.767,6.771,8.785-1.324,16.271c-16.239,15.014-32.28,30.239-47.522,46.268
	c-4.759,5.005-10.23,8.554-16.764,10.562c-8.058,2.478-15.023,6.154-18.207,14.769C157.08,391.725,155.414,393.754,152.359,395.925z
	"/>
<path fill-rule="evenodd" clip-rule="evenodd" d="M329.851,497.164c3.567-5.436,5.863-9.924,4.966-15.356
	c-0.331-2.011,0.947-2.238,2.413-1.63c8.191,3.406,17.04,3.35,25.587,4.876c1.776,0.317,2.484,1.125,2.78,2.756
	c0.53,2.9-0.499,5.222-2.791,6.834c-3.553,2.503-7.828,3.278-11.704,1.873C344.303,494.053,337.75,494.622,329.851,497.164z"/>
<path fill-rule="evenodd" clip-rule="evenodd" fill="#F26522" d="M128.227,98.631c-0.521,13.274-2.116,33.822-7.883,53.786
	c-2.218,7.673-6.32,9.499-14.223,6.882c-7.504-2.484-11.8-8.552-15.744-14.802c-7.392-11.708-11.556-24.629-13.658-38.245
	c-0.943-6.117-2.419-11.994-7.007-16.517c-1.219-1.199-1.411-2.173,0.005-3.129c6.646-4.488,8.013-11.501,8.693-18.67
	c1.591-16.743,7.146-31.899,17.374-45.305c4.631-6.069,11.053-8.739,18.339-9.858c2.092-0.322,3.075,0.698,4.042,2.444
	c3.399,6.131,4.163,13.008,5.318,19.658C126.717,53.506,128.632,72.296,128.227,98.631z"/>
<text transform="matrix(0.9916 -0.1065 0.1068 0.9943 210.2778 504.6504)" fill="#414042" font-family="'Nyala-Regular'" font-size="4.1096">(c) 2014 Yogapage</text>
</svg>
