<?xml version="1.0" encoding="utf-8"?>
<!-- Generator: Adobe Illustrator 16.0.0, SVG Export Plug-In . SVG Version: 6.00 Build 0)  -->
<!DOCTYPE svg PUBLIC "-//W3C//DTD SVG 1.1//EN" "http://www.w3.org/Graphics/SVG/1.1/DTD/svg11.dtd">
<svg version="1.1" id="Layer_1" xmlns="http://www.w3.org/2000/svg" xmlns:xlink="http://www.w3.org/1999/xlink" x="0px" y="0px"
	 width="139.04px" height="480px" viewBox="0 0 139.04 480" enable-background="new 0 0 139.04 480" xml:space="preserve">
<g>
	<path fill-rule="evenodd" clip-rule="evenodd" d="M89.033,122.562c-2.44,3.344-4.336,7.025-6.671,10.446
		c-3.785,5.545-7.858,10.876-11.694,16.378c-4.118,5.906-8.303,11.773-11.658,18.152c-0.789,1.5-0.778,3.402-1.245,5.089
		c-1.932,6.966-2.981,14.032-3.271,21.275c-0.632,15.826-0.352,31.653-0.187,47.473c0.073,6.917,0.441,13.885,1.084,20.793
		c0.666,7.162,1.967,14.296,4.835,20.917c1.776,4.101,5.366,6.723,9.736,8.167c6.992,2.309,14.339,2.337,21.523,3.208
		c9.892,1.198,19.821,2.229,29.787,2.856c4.653,0.293,9.417,0.42,13.893,2.171c1.383,0.54,2.654,1.109,3.343,2.526
		c1.074,2.208,0.533,4.076-1.764,4.859c-4.08,1.393-8.156,2.787-12.369,3.811c-5.895,1.434-11.839,2.633-17.709,4.222
		c-7.172,1.941-14.586,2.977-21.848,4.61c-4.274,0.961-8.689,1.156-12.88,2.564c-1.301,0.438-2.65,0.78-3.911,1.317
		c-1.892,0.807-3.302,2.144-3.493,4.31c-0.396,4.514-2.456,8.654-2.94,13.13c-0.344,3.185-2.236,5.952-2.179,9.271
		c0.026,1.549-1.336,1.296-2.392,0.719c-1.993-1.091-2.375-0.875-2.508,1.484c-0.105,1.88-0.184,3.762-0.274,5.643
		c-0.074,0.055,0.02,0.088-0.146,0.383c-0.18,6.57-0.679,10.426-0.235,15.782c0.306,3.689,0.383,7.346,0.39,11.03
		c0.004,1.789-0.641,3.436-0.866,5.176c-0.716,5.521-0.185,11.047-0.123,16.553c0.054,4.836-0.283,9.652-0.205,14.48
		c0.096,5.954,0.093,11.898,0.438,17.86c0.265,4.595,0.379,9.265,0.334,13.908c-0.046,4.769,0.027,9.542,0.186,14.31
		c0.083,2.48,1.045,4.584,3.346,5.938c1.645,0.967,2.325,2.815,1.796,4.359c-0.513,1.498-1.978,2.267-4.03,1.982
		c-2.283-0.318-4.51,0.289-6.774,0.286c-1.487-0.002-2.724-0.239-3.485-1.7c-0.752-1.443-0.129-2.515,0.76-3.584
		c2.131-2.563,2.539-5.625,2.537-8.807c-0.016-17.467,0.082-34.933-0.09-52.398c-0.073-7.389-0.313-14.821-1.22-22.143
		c-0.614-4.964-1.101-9.93-0.461-14.788c0.999-7.594,0.553-15.167,0.572-22.741c0.013-5.367-0.623-10.734-0.969-16.101
		c-0.024-0.377-0.068-0.751-0.076-1.128c-0.266-12.679-0.554-25.358-0.779-38.038c-0.094-5.288,1.037-10.465,1.67-15.685
		c0.468-3.852,0.6-7.728,1.005-11.577c0.868-8.263,1.011-16.545,0.612-24.822c-0.447-9.298-0.165-18.593-0.26-27.888
		c-0.058-5.529,0.257-11.075-0.078-16.583c-0.425-6.976,0.139-13.98-0.958-20.943c-0.807-5.121-2.942-9.632-5.333-14.107
		c-2.631-4.929-5.762-9.552-8.896-14.153c-3.912-5.745-8.208-11.227-12.171-16.938c-2.39-3.443-4.965-6.779-6.873-10.545
		c-0.824-1.626-1.889-3.101-3.199-4.396c-1.277-1.264-1.539-3.103-2.574-4.55c-3.18-4.447-5.574-9.367-7.499-14.442
		c-0.905-2.385-0.66-5.127,0.043-7.748c1.107-4.124,3.756-7.128,6.6-10.117c1.454-1.526,2.369-3.548,3.672-5.236
		c2.828-3.665,5.816-7.208,8.361-11.086c1.578-2.406,3.104-4.848,4.746-7.211c2.4-3.456,5.405-6.419,8.158-9.581
		c3.791-4.354,6.628-9.278,9.169-14.383c0.703-1.412,0.988-3.138,1.046-4.735c0.095-2.58,0.785-4.998,1.89-7.219
		c2.39-4.806,2.491-9.904,2.485-15.065c-0.003-2.634,0.107-5.269,0.166-7.901c0.028-1.27,0.631-1.777,1.933-1.639
		c1.239,0.131,2.433,0.517,3.726,0.39c1.242-0.122,1.322,0.965,1.348,1.844c0.112,3.826,0.344,7.659,0.211,11.478
		c-0.112,3.208,0.351,6.27,1.618,9.15c1.581,3.593,2.638,7.28,3.003,11.179c0.155,1.641,0.763,3.115,1.532,4.587
		c2.863,5.477,6.226,10.587,10.517,15.067c4.705,4.913,8.258,10.67,12.05,16.263c2.066,3.046,4.625,5.761,6.705,8.799
		c2.349,3.427,5.013,6.578,7.629,9.789c4.092,5.022,4.481,12.418,1.11,18.415c-2.44,4.341-5.222,8.536-7.25,13.115 M33.008,116.92
		c-0.054-3.726,0.277-7.417,1.21-11.015c1.461-5.634,4.129-10.464,9.987-12.574c2.009-0.724,4.229-1.166,6.487-1.218
		c6.778-0.156,13.905,3.203,16.721,13.034c1.814,6.335,1.854,12.773,1.041,19.229c-0.722,5.722-1.749,11.395-4.015,16.761
		c-1.463,3.461-3.244,6.793-6.554,8.752c-2.033,1.203-2.658,2.821-2.92,4.876c-0.167,1.305-0.37,2.606-0.584,3.906
		c-0.191,1.163-0.255,2.431,0.877,3.024c1.287,0.673,2.076-0.408,2.729-1.359c1.766-2.572,3.471-5.187,5.27-7.735
		c2.67-3.783,5.416-7.514,8.105-11.283c3.643-5.104,6.541-10.664,9.826-15.988c4.196-6.805,7.483-14.025,9.333-21.816
		c0.793-3.342,1.172-6.78-0.522-10.07c-0.657-1.276-1.221-2.607-1.742-3.946c-1.5-3.855-3.003-7.777-5.511-11.047
		c-3.652-4.761-6.924-9.806-11.01-14.261c-3.612-3.94-6.833-8.244-10.152-12.445c-1.93-2.443-3.934-4.87-5.512-7.536
		c-1.984-3.352-7.959-4.501-10.387-1.447c-1.391,1.75-2.924,3.413-4.18,5.275c-1.815,2.692-3.721,5.291-5.881,7.744
		c-1.597,1.813-3.328,3.603-4.652,5.578c-1.899,2.831-4.465,5.057-6.359,7.871c-2.303,3.425-4.979,6.599-7.292,10.017
		c-2.789,4.119-4.158,8.943-6.3,13.389c-1.134,2.354-1.495,4.814-1.193,7.437c0.84,7.295,3.875,13.817,7.164,20.221
		c1.997,3.888,4.287,7.631,6.566,11.366c2.285,3.744,4.506,7.556,7.138,11.051c3.574,4.747,6.889,9.665,10.296,14.521
		c0.756,1.078,1.423,2.224,2.236,3.255c0.959,1.215,2.34,1.42,3.761,1.115c1.47-0.315,1.324-1.614,1.489-2.716
		c0.327-2.178-0.229-4.229-0.87-6.266c-0.161-0.51-0.298-1.011-0.962-1.273c-4.955-1.951-7.565-6.033-9.474-10.666
		C34.042,133.071,33.317,125.027,33.008,116.92z M69.708,299.912c-2.691-0.326-5.742,0.259-8.744,0.858
		c-2.192,0.439-4.062,1.551-4.671,4.09c-0.751,3.134-0.687,6.325-0.935,9.494c-0.082,1.037,0.497,1.815,1.621,1.973
		c1.677,0.236,3.346,0.746,5.051,0.491c4.643-0.692,9.284-1.403,13.925-2.107c6.066-0.921,12.126-1.894,18.188-2.847
		c3.756-0.592,7.591-0.444,11.309-1.672c3.671-1.211,7.085-3.185,10.973-3.754c0.402-0.06,0.66-0.365,0.659-0.798
		c-0.001-0.338-0.162-0.691-0.499-0.699c-2.396-0.055-4.361-1.83-6.668-1.861c-4.684-0.065-9.226-1.381-13.834-1.551
		C87.412,301.207,78.792,300.24,69.708,299.912z"/>
	<g id="XMLID_1_">
		<g>
			<path fill="#F26522" d="M64.696,114.14c0.333,8.348-0.907,16.492-3.693,24.379c-0.9,2.553-2.128,4.954-4.083,6.9
				c-3.433,3.423-8.348,3.488-11.799,0.105c-3.463-3.394-4.899-7.82-6.011-12.34c-1.312-5.377-1.872-10.863-1.955-16.289
				c0.042-4.325,0.378-8.495,1.894-12.487c1.996-5.279,5.708-7.986,11.058-8.095c6.155-0.125,10.117,2.315,12.434,7.59
				C63.981,107.172,64.556,110.637,64.696,114.14z"/>
		</g>
		<g>
		</g>
	</g>
	<path fill-rule="evenodd" clip-rule="evenodd" d="M51.399,129.814c-3.956,0.018-4.228-0.312-3.119-3.569
		c0.562-1.649,1.261-3.251,1.937-4.86c0.158-0.379,0.338-0.901,0.854-0.876c0.512,0.024,0.624,0.579,0.799,0.948
		c0.993,2.091,1.627,4.311,2.254,6.529c0.274,0.969-0.023,1.562-1.135,1.621C52.306,129.644,51.627,129.783,51.399,129.814z"/>
	
		<text transform="matrix(-0.004 -0.9973 1 -0.004 53.1572 467.5181)" fill="#414042" font-family="'Nyala-Regular'" font-size="1.6438">(c) 2014 Yogapage</text>
	
		<image display="none" overflow="visible" opacity="0.3" width="370" height="1279" id="OriginePs" xlink:href="5BA0B271.jpg"  transform="matrix(0.3753 0 0 0.3753 -0.3716 0)">
	</image>
</g>
</svg>
