<svg width="61" height="56" viewBox="0 0 61 56" fill="none" xmlns="http://www.w3.org/2000/svg">
<path d="M60.0545 12.76C59.5426 12.0794 58.8215 11.5572 57.8922 11.1925C57.9418 12.0436 57.8811 12.7364 57.71 13.2716L46.7212 49.2559C46.5254 49.8878 46.0978 50.3921 45.4392 50.7689C44.7796 51.146 44.0961 51.3344 43.3879 51.3344H9.57884C6.64849 51.3344 4.89055 50.4849 4.30422 48.7823C4.06007 48.1259 4.07238 47.6038 4.34117 47.2148C4.60957 46.8499 5.0735 46.6672 5.73321 46.6672H37.5644C39.8355 46.6672 41.4044 46.2477 42.2714 45.4091C43.1391 44.5705 44.0118 42.7048 44.8904 39.8128L54.9269 6.78085C55.464 4.98233 55.2443 3.4023 54.2673 2.04153C53.2903 0.680767 51.8987 0 50.0915 0H22.2166C21.8992 0 21.2763 0.109056 20.3484 0.327933L20.3848 0.218239C19.701 0.0726613 19.1209 0.00600195 18.6448 0.0176226C18.1688 0.0302649 17.7291 0.169841 17.3263 0.437627C16.9234 0.70503 16.5996 0.990311 16.3556 1.29398C16.1114 1.59791 15.873 1.98688 15.6412 2.46064C15.4096 2.93505 15.214 3.37268 15.0553 3.77365C14.8966 4.17463 14.7132 4.60025 14.506 5.05039C14.2982 5.50002 14.0973 5.87061 13.9017 6.16215C13.7551 6.35663 13.5479 6.61178 13.279 6.92783C13.0107 7.24376 12.7908 7.52343 12.6199 7.76644C12.4491 8.00945 12.3389 8.2282 12.2904 8.42281C12.2419 8.64131 12.2661 8.96337 12.3637 9.38899C12.4612 9.81397 12.498 10.1236 12.4733 10.3183C12.3757 11.2418 12.0399 12.4143 11.4662 13.8366C10.8926 15.2587 10.3731 16.2859 9.90933 16.9175C9.8117 17.0388 9.5433 17.3124 9.10362 17.7379C8.66394 18.1631 8.39541 18.5334 8.29803 18.8494C8.20027 18.9708 8.19411 19.3113 8.27956 19.8702C8.365 20.4295 8.39592 20.8181 8.37129 21.0369C8.27314 21.8635 7.96843 22.9571 7.45537 24.3184C6.9423 25.6793 6.42975 26.7975 5.91668 27.6724C5.84368 27.8181 5.63635 28.0974 5.29404 28.511C4.95251 28.9244 4.74454 29.2647 4.67141 29.5313C4.62266 29.7258 4.62907 30.0661 4.68989 30.5521C4.75057 31.0382 4.74454 31.4026 4.67141 31.6455C4.47627 32.5685 4.10985 33.681 3.57253 34.9817C3.03535 36.2814 2.48584 37.3947 1.92377 38.3173C1.77776 38.5607 1.57582 38.8466 1.31974 39.1743C1.06327 39.502 0.861966 39.7879 0.715321 40.0308C0.568932 40.2738 0.471168 40.5289 0.422287 40.7965C0.39791 40.9424 0.43486 41.1793 0.532495 41.5079C0.630002 41.8356 0.666824 42.0968 0.642062 42.292C0.617429 42.6319 0.568932 43.082 0.495673 43.6414C0.422287 44.1998 0.385465 44.5275 0.385465 44.6245C-0.151722 46.0834 -0.127602 47.6269 0.458852 49.2561C1.14268 51.1509 2.35729 52.7499 4.1033 54.05C5.84945 55.3506 7.66231 56 9.54291 56H43.3523C44.939 56 46.4348 55.4712 47.8391 54.4145C49.2431 53.357 50.1776 52.0511 50.6407 50.4946L60.7136 17.4636C61.2514 15.7131 61.0319 14.1454 60.0545 12.76ZM21.0808 12.8329L21.8502 10.4993C21.9477 10.1834 22.149 9.91 22.4544 9.67912C22.7597 9.44863 23.0712 9.3328 23.3887 9.3328H45.6599C46.0016 9.3328 46.2456 9.44812 46.3922 9.67912C46.5385 9.91013 46.5635 10.1834 46.466 10.4993L45.6959 12.8329C45.5979 13.149 45.3974 13.4217 45.0913 13.6533C44.7857 13.8838 44.4748 13.9991 44.1575 13.9991H21.8869C21.5449 13.9991 21.3008 13.8841 21.1542 13.6533C21.0077 13.4217 20.9833 13.149 21.0808 12.8329ZM18.0408 22.1664L18.8101 19.8332C18.9076 19.5172 19.1091 19.2438 19.4142 19.0129C19.7196 18.7819 20.0307 18.6666 20.3485 18.6666H42.619C42.961 18.6666 43.2055 18.7816 43.3518 19.0129C43.4981 19.244 43.5226 19.5172 43.4247 19.8332L42.6554 22.1664C42.558 22.4823 42.3565 22.756 42.0514 22.9866C41.7456 23.2176 41.4349 23.3329 41.117 23.3329H18.8465C18.5047 23.3329 18.2606 23.218 18.1142 22.9866C17.9674 22.756 17.9431 22.4823 18.0408 22.1664Z" fill="#1A1A1A"/>
</svg>
